%!PS-Adobe-3.0 EPSF-3.0
%%Creator: graphviz version 2.28.0 (20110626.0926)
%%Title: G
%%Pages: 1
%%BoundingBox: 36 36 258 381
%%EndComments
save
%%BeginProlog
/DotDict 200 dict def
DotDict begin

/setupLatin1 {
mark
/EncodingVector 256 array def
 EncodingVector 0

ISOLatin1Encoding 0 255 getinterval putinterval
EncodingVector 45 /hyphen put

% Set up ISO Latin 1 character encoding
/starnetISO {
        dup dup findfont dup length dict begin
        { 1 index /FID ne { def }{ pop pop } ifelse
        } forall
        /Encoding EncodingVector def
        currentdict end definefont
} def
/Times-Roman starnetISO def
/Times-Italic starnetISO def
/Times-Bold starnetISO def
/Times-BoldItalic starnetISO def
/Helvetica starnetISO def
/Helvetica-Oblique starnetISO def
/Helvetica-Bold starnetISO def
/Helvetica-BoldOblique starnetISO def
/Courier starnetISO def
/Courier-Oblique starnetISO def
/Courier-Bold starnetISO def
/Courier-BoldOblique starnetISO def
cleartomark
} bind def

%%BeginResource: procset graphviz 0 0
/coord-font-family /Times-Roman def
/default-font-family /Times-Roman def
/coordfont coord-font-family findfont 8 scalefont def

/InvScaleFactor 1.0 def
/set_scale {
       dup 1 exch div /InvScaleFactor exch def
       scale
} bind def

% styles
/solid { [] 0 setdash } bind def
/dashed { [9 InvScaleFactor mul dup ] 0 setdash } bind def
/dotted { [1 InvScaleFactor mul 6 InvScaleFactor mul] 0 setdash } bind def
/invis {/fill {newpath} def /stroke {newpath} def /show {pop newpath} def} bind def
/bold { 2 setlinewidth } bind def
/filled { } bind def
/unfilled { } bind def
/rounded { } bind def
/diagonals { } bind def

% hooks for setting color 
/nodecolor { sethsbcolor } bind def
/edgecolor { sethsbcolor } bind def
/graphcolor { sethsbcolor } bind def
/nopcolor {pop pop pop} bind def

/beginpage {	% i j npages
	/npages exch def
	/j exch def
	/i exch def
	/str 10 string def
	npages 1 gt {
		gsave
			coordfont setfont
			0 0 moveto
			(\() show i str cvs show (,) show j str cvs show (\)) show
		grestore
	} if
} bind def

/set_font {
	findfont exch
	scalefont setfont
} def

% draw text fitted to its expected width
/alignedtext {			% width text
	/text exch def
	/width exch def
	gsave
		width 0 gt {
			[] 0 setdash
			text stringwidth pop width exch sub text length div 0 text ashow
		} if
	grestore
} def

/boxprim {				% xcorner ycorner xsize ysize
		4 2 roll
		moveto
		2 copy
		exch 0 rlineto
		0 exch rlineto
		pop neg 0 rlineto
		closepath
} bind def

/ellipse_path {
	/ry exch def
	/rx exch def
	/y exch def
	/x exch def
	matrix currentmatrix
	newpath
	x y translate
	rx ry scale
	0 0 1 0 360 arc
	setmatrix
} bind def

/endpage { showpage } bind def
/showpage { } def

/layercolorseq
	[	% layer color sequence - darkest to lightest
		[0 0 0]
		[.2 .8 .8]
		[.4 .8 .8]
		[.6 .8 .8]
		[.8 .8 .8]
	]
def

/layerlen layercolorseq length def

/setlayer {/maxlayer exch def /curlayer exch def
	layercolorseq curlayer 1 sub layerlen mod get
	aload pop sethsbcolor
	/nodecolor {nopcolor} def
	/edgecolor {nopcolor} def
	/graphcolor {nopcolor} def
} bind def

/onlayer { curlayer ne {invis} if } def

/onlayers {
	/myupper exch def
	/mylower exch def
	curlayer mylower lt
	curlayer myupper gt
	or
	{invis} if
} def

/curlayer 0 def

%%EndResource
%%EndProlog
%%BeginSetup
14 default-font-family set_font
1 setmiterlimit
% /arrowlength 10 def
% /arrowwidth 5 def

% make sure pdfmark is harmless for PS-interpreters other than Distiller
/pdfmark where {pop} {userdict /pdfmark /cleartomark load put} ifelse
% make '<<' and '>>' safe on PS Level 1 devices
/languagelevel where {pop languagelevel}{1} ifelse
2 lt {
    userdict (<<) cvn ([) cvn load put
    userdict (>>) cvn ([) cvn load put
} if

%%EndSetup
setupLatin1
%%Page: 1 1
%%PageBoundingBox: 36 36 258 381
%%PageOrientation: Portrait
0 0 1 beginpage
gsave
36 36 222 345 boxprim clip newpath
1 1 set_scale 0 rotate 40 41 translate
% cluster_0
gsave
1 setlinewidth
0 0 0 graphcolor
newpath 8 8 moveto
8 329 lineto
206 329 lineto
206 8 lineto
closepath stroke
0 0 0 graphcolor
14 /Times-Roman set_font
75 313.8 moveto 64 (int f \(int\)) alignedtext
grestore
% { if(a \n- condition: a
gsave
1 setlinewidth
0 0 0 nodecolor
newpath 191.28 252.92 moveto
191.28 277.08 lineto
141.91 294.16 lineto
72.09 294.16 lineto
22.72 277.08 lineto
22.72 252.92 lineto
72.09 235.84 lineto
141.91 235.84 lineto
closepath stroke
1 setlinewidth
0 0 0 nodecolor
newpath 195.29 250.07 moveto
195.29 279.93 lineto
142.58 298.17 lineto
71.42 298.17 lineto
18.71 279.93 lineto
18.71 250.07 lineto
71.42 231.83 lineto
142.58 231.83 lineto
closepath stroke
0 0 0 nodecolor
14 /Times-Roman set_font
86 268.8 moveto 42 ({ if\(a ) alignedtext
0 0 0 nodecolor
14 /Times-Roman set_font
60 253.8 moveto 94 (- condition: a) alignedtext
grestore
% a+=1; 
gsave
1 setlinewidth
0 0 0 nodecolor
60 178 43.32 18 ellipse_path stroke
0 0 0 nodecolor
14 /Times-Roman set_font
34.5 174.3 moveto 51 (a+=1; ) alignedtext
grestore
% { if(a \n- condition: a->a+=1; 
gsave
1 setlinewidth
0.66667 1 1 edgecolor
newpath 89.23 231.87 moveto
84.27 222.89 78.94 213.26 74.21 204.7 curveto
stroke
0.66667 1 1 edgecolor
newpath 77.26 202.99 moveto
69.36 195.93 lineto
71.14 206.37 lineto
closepath fill
1 setlinewidth
solid
0.66667 1 1 edgecolor
newpath 77.26 202.99 moveto
69.36 195.93 lineto
71.14 206.37 lineto
closepath stroke
grestore
% a-=1; 
gsave
1 setlinewidth
0 0 0 nodecolor
160 178 38.02 18 ellipse_path stroke
0 0 0 nodecolor
14 /Times-Roman set_font
138.5 174.3 moveto 43 (a-=1; ) alignedtext
grestore
% { if(a \n- condition: a->a-=1; 
gsave
1 setlinewidth
0 1 1 edgecolor
newpath 127.04 231.87 moveto
132.78 222.65 138.96 212.75 144.39 204.03 curveto
stroke
0 1 1 edgecolor
newpath 147.42 205.8 moveto
149.74 195.46 lineto
141.48 202.09 lineto
closepath fill
1 setlinewidth
solid
0 1 1 edgecolor
newpath 147.42 205.8 moveto
149.74 195.46 lineto
141.48 202.09 lineto
closepath stroke
grestore
% Exit
gsave
1 setlinewidth
0 1 1 nodecolor
107 34 29.35 18 ellipse_path stroke
0 0 0 nodecolor
14 /Times-Roman set_font
92 30.3 moveto 30 (Exit) alignedtext
grestore
% return a+3; 
gsave
1 setlinewidth
0 0 0 nodecolor
107 106 68.37 18 ellipse_path stroke
0 0 0 nodecolor
14 /Times-Roman set_font
62.5 102.3 moveto 89 (return a+3; ) alignedtext
grestore
% return a+3; ->Exit
gsave
1 setlinewidth
0.66667 1 1 edgecolor
newpath 107 87.7 moveto
107 79.98 107 70.71 107 62.11 curveto
stroke
0.66667 1 1 edgecolor
newpath 110.5 62.1 moveto
107 52.1 lineto
103.5 62.1 lineto
closepath fill
1 setlinewidth
solid
0.66667 1 1 edgecolor
newpath 110.5 62.1 moveto
107 52.1 lineto
103.5 62.1 lineto
closepath stroke
grestore
% a+=1; ->return a+3; 
gsave
1 setlinewidth
0.66667 1 1 edgecolor
newpath 71.14 160.41 moveto
76.73 152.08 83.64 141.8 89.89 132.49 curveto
stroke
0.66667 1 1 edgecolor
newpath 92.95 134.21 moveto
95.62 123.96 lineto
87.13 130.31 lineto
closepath fill
1 setlinewidth
solid
0.66667 1 1 edgecolor
newpath 92.95 134.21 moveto
95.62 123.96 lineto
87.13 130.31 lineto
closepath stroke
grestore
% a-=1; ->return a+3; 
gsave
1 setlinewidth
0.66667 1 1 edgecolor
newpath 147.71 160.76 moveto
141.27 152.27 133.26 141.68 126.04 132.15 curveto
stroke
0.66667 1 1 edgecolor
newpath 128.79 129.98 moveto
119.97 124.12 lineto
123.21 134.21 lineto
closepath fill
1 setlinewidth
solid
0.66667 1 1 edgecolor
newpath 128.79 129.98 moveto
119.97 124.12 lineto
123.21 134.21 lineto
closepath stroke
grestore
endpage
showpage
grestore
%%PageTrailer
%%EndPage: 1
%%Trailer
end
restore
%%EOF
